^C:\USERS\LL\SOURCE\REPOS\SERVER\SERVER\MAIN.CPP
/c /ZI /nologo /W3 /WX- /diagnostics:classic /sdl /Od /Oy- /D _MBCS /Gm- /EHsc /RTC1 /MT /GS /fp:precise /permissive- /Zc:wchar_t /Zc:forScope /Zc:inline /Fo"DEBUG\\" /Fd"DEBUG\VC141.PDB" /Gd /TP /analyze- /FC C:\USERS\LL\SOURCE\REPOS\SERVER\SERVER\MAIN.CPP
^Z:\TOM\LIBRARY\WEB\WORK\DIPLOMAS\PROGS\LUB\SERVER\SERVER\MAIN.CPP
/c /ZI /nologo /W3 /WX- /diagnostics:classic /sdl /Od /Oy- /D _MBCS /Gm- /EHsc /RTC1 /MT /GS /fp:precise /permissive- /Zc:wchar_t /Zc:forScope /Zc:inline /Fo"DEBUG\\" /Fd"DEBUG\VC141.PDB" /Gd /TP /analyze- /FC Z:\TOM\LIBRARY\WEB\WORK\DIPLOMAS\PROGS\LUB\SERVER\SERVER\MAIN.CPP
