^C:\USERS\LL\SOURCE\REPOS\SERVER\SERVER\DEBUG\MAIN.OBJ
C:\USERS\LL\SOURCE\REPOS\SERVER\DEBUG\SERVER.EXE
C:\USERS\LL\SOURCE\REPOS\SERVER\DEBUG\SERVER.ILK
C:\USERS\LL\SOURCE\REPOS\SERVER\DEBUG\SERVER.PDB
^Z:\TOM\LIBRARY\WEB\WORK\DIPLOMAS\PROGS\LUB\SERVER\SERVER\DEBUG\MAIN.OBJ
Z:\TOM\LIBRARY\WEB\WORK\DIPLOMAS\PROGS\LUB\SERVER\DEBUG\SERVER.EXE
Z:\TOM\LIBRARY\WEB\WORK\DIPLOMAS\PROGS\LUB\SERVER\DEBUG\SERVER.ILK
Z:\TOM\LIBRARY\WEB\WORK\DIPLOMAS\PROGS\LUB\SERVER\DEBUG\SERVER.PDB
